Get started • mpathsenser
…
sensors <- c(
  "Accelerometer", "Activity", "AppUsage", "Bluetooth", "Calendar",
  "Connectivity", "Device", "Gyroscope", "InstalledApps", "Light",
  "Location", "Memory", "Pedometer", "Screen", "Weather", "Wifi"
)
cov <- coverage(
  db = db,
  participant_id = "2784",
  sensor = sensors,
  relative = FALSE
)

print(cov)
#> # A tibble: 384 × 3
#>     hour measure       coverage
#>    <dbl> <fct>            <dbl>
#>  1     0 Accelerometer        0
#>  2     1 Accelerometer        0
#>  3     2 Accelerometer        0
#>  4     3 Accelerometer        0
#>  5     4 Accelerometer        0
#>  6     5 Accelerometer        0
#>  7     6 Accelerometer        0
#>  8     7 Accelerometer     1129
#>  9     8 Accelerometer      540
#> 10     9 Accelerometer     5139
#> # ℹ 374 more rows
…
